690610 965988
820386 70493
226271 959710
775444 849127
103764 240045
699145 676267
69190 504093
462400 516690
901194 215333
522749 977372
513148 165094
77203 123845
20693 905687
305359 112515
462359 191876
200280 182540
812522 435583
423271 469431
561273 813091
66190 772445
492642 816622
833284 211318
56127 843514
450399 196857
46572 826173
89315 585671
755874 102346
734740 894987
364400 178327
93961 575450
350517 250604
446925 24836
247486 582849
497537 212543
654243 164650
105622 242596
508963 335475
105088 826575
743452 392632
853523 530600
710227 850331
503367 884217
418079 949633
546935 635158
769041 656545
617464 586708
918716 420965
899962 153360
290320 819729
939484 319078
129617 96214
118430 241757
449671 646412
148613 609353
174313 680395
795109 123798
642925 8392
188450 139324
107253 650466
669548 575817
32513 644370
812992 485375
253284 678193
674684 449041
729657 49035
60848 623748
538674 16564
418163 425778
943610 472082
629628 990690
788900 643838
183539 953727
263118 140238
536192 426120
653591 538181
482443 803991
66372 928380
579992 749805
165579 35347
327813 982439
321891 52384
909445 52881
111869 211416
768352 737058
568121 66292
849997 51653
395830 772578
108878 945552
65386 898778
684827 228017
202386 578666
801030 4059
49838 63585
280344 318869
603672 211660
380661 859022
21471 774410
692068 73348
470989 56273
180607 782663
232354 592897
876066 104304
942593 392966
678240 321303
663869 21154
325030 191705
457583 516522
180823 206014
869216 449957
707540 544148
912066 701314
299998 46746
50976 769372
816479 479753
17237 235303
123709 296948
957732 349947
307233 597280
238755 922739
167359 95472
325940 382833
548217 774902
652122 290319
268753 922599
88241 187838
205537 980175
75633 284083
237514 523657
474400 853381
781828 724193
438099 220332
512174 375723
469077 587126
924659 558717
229217 767338
416442 31978
679348 738619
28290 159934
611801 849756
600387 355530
340938 510318
428017 64113
745899 289031
458751 509673
771047 596293
470254 521126
94130 692745
552803 294380
145932 230345
607144 747532
126119 999247
959762 87110
280597 781123
125021 829119
228611 290715
975082 356907
147783 824722
655029 40632
406494 376425
976397 954832
75864 923639
322739 476963
556035 321589
50421 642921
750755 141329
463410 748509
779159 596916
475064 170037
3347 826906
361875 29052
707706 214876
886849 878371
987636 127905
680155 801235
924598 950059
641834 747609
28518 716557
426629 208219
745493 824578
880131 598424
318802 611751
920619 91118
371074 912630
249547 662946
520654 44397
779062 200050
625651 377182
376168 980472
697327 120205
497324 854578
884959 869638
274329 553106
20721 942648
180216 216793
889828 963266
71744 160129
954338 5704
851921 110233
180775 885609
973605 542644
440401 355227
811081 260258
890417 414888
30932 643237
528676 66416
439927 690356
108403 604524
433175 795257
505782 731255
625471 460903
278351 865272
543224 658942
796006 993751
994798 601982
625239 502901
786113 188314
279912 430569
855400 114173
951370 383704
936585 480988
912277 242105
548412 733260
275674 53751
150436 937268
718286 242833
