1 1 1
2 2 2
3 3 8
4 4 3
5 5 6
6 6 9
7 7 17
8 8 4
9 9 20
10 10 7
11 11 15
12 12 10
13 13 10
14 14 18
15 15 18
16 16 5
17 17 13
18 18 21
19 19 21
20 20 8
1 100 119
101 200 125
201 300 128
301 400 144
401 500 142
501 600 137
601 700 145
701 800 171
801 900 179
901 1000 174
1001 1100 169
1101 1200 182
1201 1300 177
1301 1400 177
1401 1500 172
1501 1600 167
1601 1700 180
1701 1800 180
1801 1900 175
1901 2000 175
2001 2100 157
2101 2200 170
2201 2300 183
2301 2400 183
2401 2500 209
1 100 119
2 101 119
3 102 119
4 103 119
5 104 119
6 105 119
7 106 119
8 107 119
9 108 119
10 109 119
11 110 119
12 111 119
13 112 119
14 113 119
15 114 119
16 115 119
17 116 119
18 117 119
19 118 119
20 119 119
21 120 119
22 121 119
23 122 119
24 123 119
25 124 119
1 10000 262
5000 10000 262
7500 10000 260
8750 10000 260
9375 10000 242
9687 10000 242
9843 10000 242
9921 10000 180
9960 10000 180
9980 10000 180
9990 10000 180
9995 10000 180
9997 10000 180
9998 10000 92
100000 200000 383
100000 200000 383
100000 200000 383
100000 200000 383
1 2 2
2 4 8
4 8 17
8 16 20
16 32 112
32 64 113
64 128 119
128 256 128
256 512 144
512 1024 179
1024 2048 182
2048 4096 238
4096 8192 262
8192 16384 276
16384 32768 308
32768 65536 340
65536 131072 354
131072 262144 443
262144 524288 470
1 2 2
1 4 8
1 8 17
1 16 20
1 32 112
1 64 113
1 128 119
1 256 128
1 512 144
1 1024 179
1 2048 182
1 4096 238
1 8192 262
1 16384 276
1 32768 308
1 65536 340
1 131072 354
1 262144 443
1 524288 470
997499 997599 321
997599 997699 321
997699 997799 228
997799 997899 440
997899 997999 228
997999 998099 228
998099 998199 259
998199 998299 277
998299 998399 246
998399 998499 277
998499 998599 246
998599 998699 246
998699 998799 246
998799 998899 259
998899 998999 396
998999 999099 277
999099 999199 321
999199 999299 396
999299 999399 277
999399 999499 290
999499 999599 290
999599 999699 290
999699 999799 259
999799 999899 259
999899 999999 259
4759 9110 262
912 5605 238
3803 7963 262
960 4216 238
699 927 179
3330 6901 262
1636 8259 262
122 7896 262
6128 9838 262
5038 9716 262
1526 2097 180
2693 7334 262
5992 6863 262
3316 9092 262
2247 4399 238
4366 5901 236
2064 4844 238
2025 3795 238
2848 9034 262
4423 8534 262
6968 7667 239
3919 7246 262
3344 4791 238
2440 4676 238
923 2004 182
785 7002 262
191 9754 262
1744 9065 262
1711 4679 238
2480 4833 238
6035 8135 262
1479 7417 262
1518 4860 238
853 2348 183
1498 9512 262
2651 8627 262
1012 9661 262
5116 8283 262
4720 9114 262
4386 6018 236
1308 8868 262
7158 8606 252
2008 2275 183
2351 5362 238
1566 3530 217
4232 7681 262
508 4347 238
4842 6998 262
605 3137 217
679 1876 182
