346220 483425 449
370276 99772 443
723618 826506 468
900621 426879 525
591778 201438 470
82270 313308 443
660979 500823 509
419964 814530 509
40895 111583 354
499392 348485 449
993112 184150 525
42942 247228 443
82582 337158 443
78012 220092 386
706045 679438 504
298810 863264 525
453345 726020 509
113070 928046 525
275154 933030 525
645265 509883 509
257859 727301 509
980892 311359 525
680355 373294 509
35302 799718 509
197400 877394 525
225904 806855 509
666028 712278 504
25115 863897 525
22451 961581 525
154763 649107 509
924121 600188 525
812559 641233 504
617272 410715 470
701144 291695 509
717427 643588 504
635557 896659 525
568215 950749 525
711382 708774 380
379841 246851 441
287353 936881 525
671953 275116 509
400550 112236 443
20772 131310 354
46425 198878 383
728296 754272 424
848419 929465 476
882419 376284 525
714670 800505 468
872185 358713 525
61218 249141 443
221595 572659 470
228929 596821 470
277437 768280 509
83194 354248 443
724545 64503 509
62131 442934 449
160414 405711 443
940822 21741 525
254163 175035 443
985589 166311 525
787258 680912 504
237201 884695 525
165558 733460 509
483467 27287 449
459737 779089 509
664771 354128 509
458194 76141 449
114928 895077 525
93530 175112 383
169022 327491 443
87529 686489 509
979839 750558 525
255149 412325 449
806617 348663 509
307554 552199 470
798807 148103 509
225569 967699 525
282889 453972 449
905796 276649 525
382378 754984 509
797835 48749 509
580266 593144 434
411832 733769 509
282059 432579 449
594171 133186 470
711397 547738 509
256031 273548 407
546563 96133 470
243957 347706 441
847868 223017 525
407208 467824 449
318255 309815 384
570038 580122 390
567266 225512 470
593177 742221 509
64595 75964 325
829584 107108 509
889776 483953 525
412724 267122 449
378468 164224 443
921419 410841 525
441984 509778 444
83931 834580 509
672038 259626 509
747257 217770 509
742040 416846 509
542352 176487 470
822684 919531 525
365916 741385 509
980955 816632 525
400859 21751 443
510003 936761 525
890595 219383 525
782623 133309 509
781488 332183 509
848003 421335 525
891580 762384 525
721361 834002 468
902401 651310 525
285559 173057 443
971603 356707 525
635983 575792 509
583166 955862 525
786541 290952 509
166473 470214 449
115786 389026 443
67588 48371 340
633464 506539 509
491917 32724 449
339848 224022 443
983303 519980 525
2897 774338 509
490913 416936 444
332331 588019 470
410850 241895 449
439320 594546 470
630795 62450 509
800454 246584 509
683239 277661 509
12742 893932 525
174322 346312 443
884654 795202 525
70282 208708 383
221934 265882 443
335077 341600 366
387819 361618 423
893785 476185 525
164673 28353 383
666361 515778 509
462852 380530 449
714501 20911 509
134475 753105 509
552428 853938 525
674401 316964 509
288026 270705 389
924766 36754 525
383194 462723 449
217099 647027 509
837043 899208 525
679015 416489 509
230830 867573 525
801648 512237 509
179371 566379 470
734620 782047 468
59472 856136 525
63539 200988 383
185643 677435 509
356513 60236 443
500235 810802 509
274657 122268 443
873132 866017 432
70429 588245 470
489029 693032 509
814296 327557 509
332124 766668 509
945704 80308 525
989588 234646 525
607274 906690 525
390007 537809 470
663014 910018 525
84831 396154 443
319073 708498 509
534012 834542 509
773078 539836 509
978713 309416 525
524402 832002 509
210075 949219 525
799680 503635 509
698301 14666 509
401939 576571 470
788263 612988 509
237585 395485 441
453690 674465 509
357465 551880 470
865918 451534 525
411592 437065 418
816805 553971 509
378969 102252 443
63749 941236 525
303463 783973 509
383305 820181 509
554271 331610 470
305183 682554 509
467121 439095 444
441227 271160 449
763098 894128 525
981210 266747 525
84933 562277 470
615899 575506 447
55863 130691 354
321953 857710 525
684687 628516 442
173938 511663 449
724884 819700 468
103289 28119 351
627693 136439 509
168197 352255 443
667318 997372 525
123880 271405 443
